{
	"spider": "https://dxawi.github.io/1/jar/cs.jar;md5;77afd616fd7d56c0cce18204a0ff47eb",
	"wallpaper": "https://tool.weetai.cn/api",
	"sites": [{
			"key": "csp_XBiu_REPEN",
			"name": "❤️RENPE┃R",
			"type": 3,
			"api": "csp_XBiu",
			"searchable": 1,
			"quickSearch": 1,
			"filterable": 1,
			"ext": "https://mac.rp123.top/vodshow/{cateId}--------{catePg}---/"
		}, {
			"key": "csp_xb_qsp",
			"name": "❤️氢视频┃R",
			"type": 3,
			"api": "csp_XBiu",
			"searchable": 1,
			"quickSearch": 1,
			"filterable": 1,
			"ext": "http://h1080p.com/index.php/vod/show/by/{by}/id/{cateId}/page/{catePg}/year/{year}.html"
		}, {
			"key": "csp_xb_jiumeng",
			"name": "❤️旧梦影视┃R",
			"type": 3,
			"api": "csp_XBiu",
			"searchable": 1,
			"quickSearch": 1,
			"filterable": 1,
			"ext": "http://150.158.130.238:4433/index.php/vod/show/area/{area}/by/{by}/class/{class}/id/{cateId}/lang/{lang}/letter/{letter}/page/{catePg}/year/{year}.html"
		}, {
			"key": "csp_xb_1080ys",
			"name": "❤️1080影视┃R",
			"type": 3,
			"api": "csp_XBiu",
			"searchable": 1,
			"quickSearch": 1,
			"filterable": 1,
			"ext": "https://1080p.tv/vodshow/{cateId}--------{catePg}---"
		}, {
			"key": "csp_XBiu_cokemv",
			"name": "❤️cokemv┃R",
			"type": 3,
			"api": "csp_XBiu",
			"searchable": 1,
			"quickSearch": 1,
			"filterable": 1,
			"ext": "https://cokemv.me/index.php/vod/show/id/{cateId}/page/{catePg}.html"
		}, {
			"key": "csp_xb_aiku",
			"name": "❤️爱酷影视┃R",
			"type": 3,
			"api": "csp_XBiu",
			"searchable": 1,
			"quickSearch": 1,
			"filterable": 1,
			"ext": "https://www.zhanlangbu.com/index.php/vod/type/id/{cateId}.html"
		}, {
			"key": "csp_xb_shm",
			"name": "❤️神马影视┃R",
			"type": 3,
			"api": "csp_XBiu",
			"searchable": 1,
			"quickSearch": 1,
			"filterable": 0,
			"ext": "https://www.smdyy.cc/show/{cateId}-{area}--{class}-----{catePg}---{year}.html"
		}, {
			"key": "csp_xb_fg",
			"name": "❤️疯狗影视┃R",
			"type": 3,
			"api": "csp_XBiu",
			"searchable": 1,
			"quickSearch": 1,
			"filterable": 0,
			"ext": "https://m.fenggoudy3.com/list-select-id-{cateId}-type--area--year--star--state--order-addtime-p-{catePg}.html"
		}, {
			"key": "csp_xb_huix",
			"name": "❤️回响影视┃R",
			"type": 3,
			"api": "csp_XBiu",
			"searchable": 1,
			"quickSearch": 1,
			"filterable": 0,
			"ext": "http://hxys.tv/vodshow/{cateId}-{area}-------{catePg}---{year}.html"
		}, {
			"key": "csp_xb_aikan ",
			"name": "❤️爱看影视┃R",
			"type": 3,
			"api": "csp_XBiu",
			"searchable": 1,
			"quickSearch": 1,
			"filterable": 0,
			"ext": "https://ikan6.vip/vodshow/{cateId}--------{catePg}---"
		}, {
			"key": "csp_xbiu_ysgc",
			"name": "影视工厂（XBiu）",
			"type": 3,
			"api": "csp_XBiu",
			"searchable": 1,
			"quickSearch": 1,
			"filterable": 0,
			"ext": "https://www.ysgc.fun/vodtype/{cateId}-{catePg}.html"
		}, {
			"key": "csp_xbiu_lgyy",
			"name": "蓝光影院（XBiu）",
			"type": 3,
			"api": "csp_XBiu",
			"searchable": 1,
			"quickSearch": 1,
			"filterable": 0,
			"ext": "https://lgyy.tv/vodshow/{cateId}--------{catePg}---.html"
		}, {
			"key": "csp_xbiu_达达龟",
			"name": "达达龟（XBiu）",
			"type": 3,
			"api": "csp_XBiu",
			"searchable": 1,
			"quickSearch": 1,
			"filterable": 0,
			"ext": "https://www.dadagui.me/vodshow/{cateId}--------{catePg}---.html"
		}, {
			"key": "csp_xb_luozhu",
			"name": "乐猪（XBiu）",
			"type": 3,
			"api": "csp_XBiu",
			"searchable": 1,
			"quickSearch": 1,
			"filterable": 0,
			"ext": "http://www.lezhutv.com/list/{cateId}_{catePg}__time_____.html"
		}, {
			"key": "多多资源",
			"name": "多多资源(切)",
			"type": 1,
			"api": "https://www.ddzyz1.com/api.php/provide/vod/",
			"searchable": 1,
			"quickSearch": 1
		},
		{
			"key": "Gitcafe",
			"name": "小纸条",
			"type": 3,
			"api": "csp_Gitcafe",
			"searchable": 1,
			"quickSearch": 1,
			"filterable": 1,
			"ext": "3865f0ab8f124688ad786a262af9b940"
		},
		{
			"key": "Upyunso",
			"name": "up云搜",
			"type": 3,
			"api": "csp_Upyunso",
			"searchable": 1,
			"quickSearch": 1,
			"filterable": 0,
			"ext": "3865f0ab8f124688ad786a262af9b940"
		},
		{
			"key": "zhaozy",
			"name": "找资源",
			"type": 3,
			"api": "csp_FindZY",
			"searchable": 1,
			"quickSearch": 1,
			"filterable": 1,
			"ext": "3865f0ab8f124688ad786a262af9b940"
		},
		{
			"key": "AliPS",
			"name": "盘搜",
			"type": 3,
			"api": "csp_AliPS",
			"searchable": 1,
			"quickSearch": 1,
			"filterable": 1,
			"ext": "3865f0ab8f124688ad786a262af9b940"
		},
		{
			"key": "Yiso",
			"name": "一搜",
			"type": 3,
			"api": "csp_Yiso",
			"searchable": 1,
			"quickSearch": 1,
			"filterable": 0,
			"ext": "3865f0ab8f124688ad786a262af9b940"
		},
		{
			"key": "push_agent",
			"name": "推送",
			"type": 3,
			"api": "csp_PushAgent",
			"searchable": 0,
			"quickSearch": 0,
			"filterable": 0,
			"ext": "3865f0ab8f124688ad786a262af9b940"
		}
	],
	"parses": [{
			"name": "解析聚合",
			"type": 3,
			"url": "Demo"
		},
		{
			"name": "Json并发",
			"type": 2,
			"url": "Parallel"
		},
		{
			"name": "Json轮询",
			"type": 2,
			"url": "Sequence"
		},
		{
			"name": "8090",
			"url": "https://www.8090g.cn/?url="
		},
		{
			"name": "南云",
			"type": 1,
			"url": "https://hc.izny.cn/json.php?url=",
			"ext": {
				"flag": ["qiyi", "iqiyi", "奇艺", "爱奇艺", "qq", "腾讯", "youku", "优酷", "pptv", "PPTV", "letv", "乐视", "bilibili", "哔哩哔哩", "哔哩", "mgtv", "芒果", "xigua", "西瓜", "sohu", "搜狐", "cntv", "cctv", "央视", "1905", "m1905"]
			}
		},
		{
			"name": "江湖1",
			"type": 1,
			"url": "http://211.99.99.236:4567/jhjson/ceshi.php?url=",
			"ext": {
				"flag": ["qiyi", "iqiyi", "奇艺", "爱奇艺", "qq", "腾讯", "youku", "优酷", "pptv", "PPTV", "letv", "乐视", "bilibili", "哔哩哔哩", "哔哩", "mgtv", "芒果", "xigua", "西瓜", "sohu", "搜狐", "cntv", "cctv", "央视", "1905", "m1905"]
			}
		},
		{
			"name": "江湖2",
			"url": "http://43.139.29.179:5705/parse/api/江湖.js?url=",
			"type": 1,
			"ext": {
				"flag": ["qiyi", "imgo", "爱奇艺", "奇艺", "qq", "腾讯", "youku", "优酷", "pptv", "PPTV", "letv", "乐视", "leshi", "bilibili", "哔哩哔哩", "哔哩", "mgtv", "芒果", "sohu", "xigua", "fun", "风行"],
				"header": {
					"User-Agent": "Mozilla/5.0"
				}
			}
		},
		{
			"name": "keyu",
			"type": 1,
			"url": "http://newjiexi.gotka.top/keyu3.php?url=",
			"ext": {
				"flag": ["qq", "腾讯", "qiyi", "爱奇艺", "奇艺", "youku", "优酷", "mgtv", "芒果", "letv", "乐视", "pptv", "PPTV", "sohu", "bilibili", "哔哩哔哩", "哔哩"],
				"header": {
					"User-Agent": "okhttp/4.1.0"
				}
			}
		},
		{
			"name": "xmflv",
			"type": 0,
			"url": "https://jx.xmflv.com/?url="
		},
		{
			"name": "Parwix",
			"type": 0,
			"url": "https://jx.bozrc.com:4433/player/?url="
		},
		{
			"name": "okjx",
			"type": 0,
			"url": "https://okjx.cc/?url="
		},
		{
			"name": "Web",
			"type": 0,
			"url": "https://chaxun.truechat365.com/?url=",
			"ext": {
				"flag": ["youku", "优酷", "mgtv", "芒果", "qq", "腾讯", "qiyi", "爱奇艺", "iqiyi", "奇艺"]
			}
		},
		{
			"name": "GGTV搜集",
			"type": 1,
			"url": "https://play.fuqizhishi.com/juhe/API.php?appkey=caijijuhe220902&url="
		},
		{
			"name": "GGTV自用",
			"type": 1,
			"url": "https://play.fuqizhishi.com/jx/API.php?appkey=xiaobai888&url="
		}
	],
	"rules": [{
			"host": "www.agemys.cc",
			"rule": ["cdn-tos", "obj/tos-cn"]
		},
		{
			"host": "*",
			"rule": ["douyinvod.com", "/video/tos/cn/"]
		},
		{
			"host": "*",
			"rule": ["default.365yg.com", "/video/tos/cn/"]
		},
		{
			"host": "*",
			"rule": ["/m3u8.php", "path="]
		},
		{
			"host": "zjmiao.com",
			"rule": ["play.videomiao.vip/API.php", "time=", "key=", "path="]
		}
	],
	"flags": ["youku", "qq", "iqiyi", "qiyi", "letv", "sohu", "letv", "tudou", "pptv", "mgtv", "wasu", "bilibili", "leduo", "renrenmi", "优酷", "芒果", "腾讯", "爱奇艺", "奇艺"],
	"ijk": [{
			"group": "软解码",
			"options": [{
					"category": 4,
					"name": "opensles",
					"value": "0"
				},
				{
					"category": 4,
					"name": "overlay-format",
					"value": "842225234"
				},
				{
					"category": 4,
					"name": "framedrop",
					"value": "1"
				},
				{
					"category": 4,
					"name": "soundtouch",
					"value": "1"
				},
				{
					"category": 4,
					"name": "start-on-prepared",
					"value": "1"
				},
				{
					"category": 1,
					"name": "http-detect-range-support",
					"value": "0"
				},
				{
					"category": 1,
					"name": "fflags",
					"value": "fastseek"
				},
				{
					"category": 2,
					"name": "skip_loop_filter",
					"value": "48"
				},
				{
					"category": 4,
					"name": "reconnect",
					"value": "1"
				},
				{
					"category": 4,
					"name": "max-buffer-size",
					"value": "5242880"
				},
				{
					"category": 4,
					"name": "enable-accurate-seek",
					"value": "0"
				},
				{
					"category": 4,
					"name": "mediacodec",
					"value": "0"
				},
				{
					"category": 4,
					"name": "mediacodec-auto-rotate",
					"value": "0"
				},
				{
					"category": 4,
					"name": "mediacodec-handle-resolution-change",
					"value": "0"
				},
				{
					"category": 4,
					"name": "mediacodec-hevc",
					"value": "0"
				},
				{
					"category": 1,
					"name": "dns_cache_timeout",
					"value": "600000000"
				}
			]
		},
		{
			"group": "硬解码",
			"options": [{
					"category": 4,
					"name": "opensles",
					"value": "0"
				},
				{
					"category": 4,
					"name": "overlay-format",
					"value": "842225234"
				},
				{
					"category": 4,
					"name": "framedrop",
					"value": "1"
				},
				{
					"category": 4,
					"name": "soundtouch",
					"value": "1"
				},
				{
					"category": 4,
					"name": "start-on-prepared",
					"value": "1"
				},
				{
					"category": 1,
					"name": "http-detect-range-support",
					"value": "0"
				},
				{
					"category": 1,
					"name": "fflags",
					"value": "fastseek"
				},
				{
					"category": 2,
					"name": "skip_loop_filter",
					"value": "48"
				},
				{
					"category": 4,
					"name": "reconnect",
					"value": "1"
				},
				{
					"category": 4,
					"name": "max-buffer-size",
					"value": "5242880"
				},
				{
					"category": 4,
					"name": "enable-accurate-seek",
					"value": "0"
				},
				{
					"category": 4,
					"name": "mediacodec",
					"value": "1"
				},
				{
					"category": 4,
					"name": "mediacodec-auto-rotate",
					"value": "1"
				},
				{
					"category": 4,
					"name": "mediacodec-handle-resolution-change",
					"value": "1"
				},
				{
					"category": 4,
					"name": "mediacodec-hevc",
					"value": "1"
				},
				{
					"category": 1,
					"name": "dns_cache_timeout",
					"value": "600000000"
				}
			]
		}
	],
	"ads": ["mimg.0c1q0l.cn",
		"www.googletagmanager.com",
		"www.google-analytics.com",
		"https://lf1-cdn-tos.bytegoofy.com/obj/tos-cn-i-dy/455ccf9e8ae744378118e4bd289288dd",
		"mc.usihnbcq.cn",
		"mg.g1mm3d.cn",
		"mscs.svaeuzh.cn",
		"cnzz.hhttm.top",
		"tp.vinuxhome.com",
		"cnzz.mmstat.com",
		"www.baihuillq.com",
		"s23.cnzz.com",
		"z3.cnzz.com",
		"c.cnzz.com",
		"stj.v1vo.top",
		"z12.cnzz.com",
		"img.mosflower.cn",
		"tips.gamevvip.com",
		"ehwe.yhdtns.com",
		"xdn.cqqc3.com",
		"www.jixunkyy.cn",
		"sp.chemacid.cn",
		"hm.baidu.com",
		"s9.cnzz.com",
		"z6.cnzz.com",
		"um.cavuc.com",
		"mav.mavuz.com",
		"wofwk.aoidf3.com",
		"z5.cnzz.com",
		"xc.hubeijieshikj.cn",
		"tj.tianwenhu.com",
		"xg.gars57.cn",
		"k.jinxiuzhilv.com",
		"cdn.bootcss.com",
		"ppl.xunzhuo123.com",
		"xomk.jiangjunmh.top",
		"img.xunzhuo123.com",
		"z1.cnzz.com",
		"s13.cnzz.com",
		"xg.huataisangao.cn",
		"z7.cnzz.com",
		"xg.huataisangao.cn",
		"z2.cnzz.com",
		"s96.cnzz.com",
		"q11.cnzz.com",
		"thy.dacedsfa.cn",
		"xg.whsbpw.cn",
		"s19.cnzz.com",
		"z8.cnzz.com",
		"s4.cnzz.com",
		"f5w.as12df.top",
		"ae01.alicdn.com",
		"www.92424.cn",
		"k.wudejia.com",
		"vivovip.mmszxc.top",
		"qiu.xixiqiu.com",
		"cdnjs.hnfenxun.com",
		"cms.qdwght.com"
	]
}
