{
  "name": "神马smtv8",
  "tihuan": "cnzz.com",
  "url": "https://www.smtv8.com",
  "shouye": "1",
  //"fenlei": "喜剧片$/xijupian/index_#动作片$/dongzuopian/index_#科幻片$/kehuanpian/index_#恐怖片$/kongbupian/index_#爱情片$/aiqingpian/index_#战争片$/zhanzhengpian/index_#犯罪片$/fanzuipian/index_#剧情片$/juqingpian/index_#记录片$/jilupian/index_#经典片$/jingdianpian/index_#微拍福利$/weipaifuli/index_#国产剧$/guocanju/index_#香港剧$/xianggangju/index_#台湾剧$/taiwanju/index_#韩国剧$/hanguoju/index_#日本剧$/ribenju/index_#欧美剧$/oumeiju/index_#海外剧$/haiwaiju/index_#综艺$/fun/index_#动漫$/cartoon/index_",
  "fenlei": "喜剧片$/xijupian/index_#动作片$/dongzuopian/index_#科幻片$/kehuanpian/index_#恐怖片$/kongbupian/index_#爱情片$/aiqingpian/index_#战争片$/zhanzhengpian/index_#犯罪片$/fanzuipian/index_#剧情片$/juqingpian/index_#记录片$/jilupian/index_#经典片$/jingdianpian/index_#国产剧$/guocanju/index_#香港剧$/xianggangju/index_#台湾剧$/taiwanju/index_#韩国剧$/hanguoju/index_#日本剧$/ribenju/index_#欧美剧$/oumeiju/index_#海外剧$/haiwaiju/index_#综艺$/fun/index_#动漫$/cartoon/index_",
  "houzhui": "_______.html",
  "shifouercijiequ": "0",
  "jiequqian": "空",
  "jiequhou": "空",
  "jiequshuzuqian": "class=\"link-hover\"",
  "jiequshuzuhou": "</a>",
  "tupianqian": "src=\"",
  "tupianhou": "\"",
  "biaotiqian": "title=\"",
  "biaotihou": "\"",
  "lianjieqian": "href=\"",
  "lianjiehou": "\"",
  "sousuoqian": "/index.php/ajax/suggest?mid=1&wd=",
  "sousuohou": "&limit=500",
  "sousuohouzhui": "/kan/",
  "ssmoshi": "0",
  "sousuoshifouercijiequ": "0",
  "jspic": "pic",
  "jsname": "name",
  "jsid": "id",
  "ssjiequqian": "空",
  "ssjiequhou": "空",
  "ssjiequshuzuqian": "空",
  "ssjiequshuzuhou": "空",
  "sstupianqian": "空",
  "sstupianhou": "空",
  "ssbiaotiqian": "空",
  "ssbiaotihou": "空",
  "sslianjieqian": "空",
  "sslianjiehou": "空",
  "bfshifouercijiequ": "0",
  "bfjiequqian": "空",
  "bfjiequhou": "空",
  "bfjiequshuzuqian": "class=\"urlli clearfix\"",
  "bfjiequshuzuhou": "</div>",
  "zhuangtaiqian": "class=\"bz\">",
  "zhuangtaihou": "</if>",
  "daoyanqian": "导演：</span>",
  "daoyanhou": "</a>",
  "zhuyanqian": "主演：</span>",
  "zhuyanhou": "</a>",
  "juqingqian": "剧情：</span>",
  "juqinghou": "</div>",
  "bfyshifouercijiequ": "0",
  "bfyjiequqian": "空",
  "bfyjiequhou": "空",
  "bfyjiequshuzuqian": "<a",
  "bfyjiequshuzuhou": "/a>",
  "bfbiaotiqian": ">",
  "bfbiaotihou": "<",
  "bflianjieqian": "href='",
  "bflianjiehou": "'"
}